{
    "name": "Model",
    "fields": [
        {
            "fieldName": "name",
            "fieldType": "String",
            "fieldValidateRules": [
                "required"
            ]
        }
    ],
    "relationships": [
        {
            "relationshipType": "one-to-one",
            "otherEntityName": "brand",
            "otherEntityRelationshipName": "model",
            "relationshipName": "brand",
            "otherEntityField": "id",
            "ownerSide": true
        }
    ],
    "changelogDate": "20190804091942",
    "entityTableName": "model",
    "dto": "no",
    "pagination": "pagination",
    "service": "serviceImpl",
    "jpaMetamodelFiltering": false,
    "fluentMethods": true,
    "clientRootFolder": "",
    "applications": "*"
}